<svg width="64" height="64" viewBox="0 0 16 16" fill="none"
  xmlns="http://www.w3.org/2000/svg">
  <!-- <rect width="64" height="64" fill="white"/> -->
  <path d="M15.3999 6.00013H14.4599C14.3264 5.98522 14.1918 6.01555 14.0775 6.08627C13.9633 6.15698 13.8761 6.26398 13.8299 6.39013C12.9366 7.9568 12.0366 9.52013 11.1299 11.0801C10.8999 11.4801 10.7399 11.4801 10.5099 11.0801L8.65992 7.89013L7.99992 6.81013L7.82992 7.08013L5.50992 11.0801C5.27992 11.4801 5.11992 11.4801 4.88992 11.0801C3.99659 9.52013 3.09659 7.95013 2.18992 6.37013C2.15699 6.24919 2.08066 6.14461 1.97552 6.07636C1.87039 6.00812 1.7438 5.98098 1.61992 6.00013H0.619923C0.179923 6.00013 0.129923 6.13013 0.349923 6.52013L4.23992 13.3001L5.23992 15.0101L7.99992 10.2201L10.7999 15.0601L10.9399 14.8201L15.6899 6.54013C15.9299 6.15013 15.8799 6.06013 15.3999 6.00013Z" fill="gray"/>
  <path d="M16 0.940177H15.14C14.7297 0.923853 14.3233 1.02536 13.9689 1.2327C13.6145 1.44004 13.3268 1.74453 13.14 2.11018C12.47 3.27018 11.79 4.43018 11.14 5.58018C10.95 5.91018 10.76 5.90018 10.56 5.58018L9.56 3.92018L8 1.23018L7.86 1.47018L5.53 5.53018C5.3 5.92018 5.14 5.92018 4.91 5.53018L2.87 2.00018C2.68609 1.66847 2.41418 1.39397 2.08422 1.20693C1.75426 1.0199 1.37907 0.927588 1 0.940177H0V2.55018H0.41C0.657626 2.53825 0.903444 2.59793 1.11804 2.72207C1.33263 2.84622 1.5069 3.02956 1.62 3.25018L4.42 8.10018L5.23 9.48018L8 4.64018L10.8 9.47018L11 9.22018C12.13 7.22018 13.26 5.32018 14.38 3.36018C14.5065 3.10137 14.7072 2.8861 14.9566 2.74184C15.2059 2.59757 15.4926 2.53085 15.78 2.55018H16V0.940177Z" fill="#EB5B27"/>
</svg>
