<svg width="208" height="32" viewBox="0 0 208 32" fill="none"
  xmlns="http://www.w3.org/2000/svg">
  <path d="M92.6397 26.2502C92.0197 26.2502 91.5321 26.4658 91.1771 26.897C90.8221 27.3281 90.6446 27.9232 90.6446 28.6821C90.6446 29.4765 90.8147 30.0775 91.1549 30.485C91.4976 30.8925 91.9932 31.0962 92.6397 31.0962C92.9195 31.0962 93.1907 31.0697 93.4527 31.0165C93.714 30.9604 93.9864 30.8895 94.2693 30.8039V31.712C93.7522 31.9039 93.1648 31.9999 92.5091 31.9999C91.5432 31.9999 90.8012 31.7135 90.2834 31.1406C89.7657 30.5647 89.5068 29.7423 89.5068 28.6732C89.5068 27.9999 89.632 27.4108 89.8816 26.9058C90.1343 26.4008 90.4985 26.0139 90.9744 25.7452C91.4496 25.4765 92.008 25.3421 92.649 25.3421C93.3232 25.3421 93.9458 25.4809 94.5177 25.7585L94.1294 26.64C93.9069 26.5367 93.6709 26.4466 93.4206 26.3698C93.1741 26.2901 92.914 26.2502 92.6397 26.2502ZM96.8931 25.4352H98.8525C99.7616 25.4352 100.417 25.5651 100.821 25.825C101.227 26.0848 101.43 26.4953 101.43 27.0564C101.43 27.4344 101.331 27.7489 101.132 27.9999C100.934 28.251 100.648 28.4089 100.274 28.4739V28.5182C100.738 28.6038 101.078 28.7736 101.295 29.0276C101.514 29.2786 101.624 29.6197 101.624 30.0508C101.624 30.6326 101.416 31.0889 101.002 31.4196C100.589 31.7474 100.014 31.9113 99.2771 31.9113H96.8931V25.4352ZM97.9723 28.1107H99.0109C99.462 28.1107 99.7918 28.0413 99.9995 27.9025C100.207 27.7607 100.311 27.5215 100.311 27.1849C100.311 26.8807 100.198 26.6607 99.9724 26.5249C99.7493 26.389 99.3942 26.3211 98.9067 26.3211H97.9723V28.1107ZM97.9723 28.97V31.0209H99.1187C99.5705 31.0209 99.9107 30.9368 100.139 30.7685C100.371 30.5972 100.487 30.3284 100.487 29.9622C100.487 29.6256 100.369 29.3761 100.134 29.2137C99.8997 29.0512 99.5434 28.97 99.0645 28.97H97.9723ZM108.293 31.9113L107.634 30.1129H105.11L104.465 31.9113H103.327L105.797 25.4085H106.97L109.439 31.9113H108.293ZM107.349 29.2004L106.731 27.4373C106.686 27.3192 106.623 27.1332 106.541 26.8792C106.463 26.6253 106.409 26.4392 106.379 26.3211C106.298 26.6843 106.179 27.0815 106.022 27.5127L105.426 29.2004H107.349ZM115.883 27.3931C115.883 28.0693 115.657 28.5876 115.205 28.9479C114.754 29.3082 114.111 29.4883 113.278 29.4883H112.591V31.9113H111.513V25.4352H113.413C114.238 25.4352 114.855 25.6005 115.264 25.9313C115.676 26.262 115.883 26.7493 115.883 27.3931ZM112.591 28.5979H113.165C113.719 28.5979 114.125 28.5034 114.384 28.3144C114.643 28.1254 114.772 27.8302 114.772 27.4285C114.772 27.0564 114.656 26.7788 114.424 26.5957C114.193 26.4126 113.832 26.3211 113.341 26.3211H112.591V28.5979ZM124.262 28.6643C124.262 29.7186 123.993 30.5381 123.454 31.1228C122.918 31.7076 122.158 31.9999 121.174 31.9999C120.178 31.9999 119.413 31.7105 118.876 31.1317C118.344 30.5499 118.078 29.7246 118.078 28.6555C118.078 27.5865 118.346 26.7655 118.881 26.1926C119.42 25.6197 120.187 25.3333 121.183 25.3333C122.164 25.3333 122.923 25.6242 123.458 26.2059C123.994 26.7877 124.262 27.6072 124.262 28.6643ZM119.224 28.6643C119.224 29.4617 119.388 30.0671 119.716 30.4805C120.044 30.891 120.53 31.0962 121.174 31.0962C121.815 31.0962 122.298 30.8925 122.623 30.485C122.952 30.0775 123.116 29.4706 123.116 28.6643C123.116 27.87 122.953 27.2676 122.628 26.8571C122.306 26.4466 121.824 26.2414 121.183 26.2414C120.536 26.2414 120.047 26.4466 119.716 26.8571C119.388 27.2676 119.224 27.87 119.224 28.6643ZM131.716 31.9113H130.632V29.3244C130.226 29.4661 129.864 29.568 129.545 29.63C129.229 29.6921 128.91 29.723 128.588 29.723C127.965 29.723 127.484 29.5798 127.143 29.2934C126.806 29.004 126.637 28.595 126.637 28.0664V25.4352H127.721V27.8183C127.721 28.155 127.805 28.406 127.974 28.5713C128.146 28.7367 128.425 28.8194 128.814 28.8194C129.1 28.8194 129.378 28.7943 129.649 28.7441C129.919 28.691 130.247 28.6009 130.632 28.4739V25.4352H131.716V31.9113ZM139.861 31.9113H138.777V28.9921H135.735V31.9113H134.656V25.4352H135.735V28.0841H138.777V25.4352H139.861V31.9113ZM147.179 29.9622C147.179 30.6031 146.967 31.0889 146.543 31.4196C146.122 31.7474 145.502 31.9113 144.683 31.9113H142.801V25.4352H143.88V28.0664H144.647C145.472 28.0664 146.099 28.2288 146.529 28.5536C146.963 28.8785 147.179 29.348 147.179 29.9622ZM143.88 31.0298H144.62C145.102 31.0298 145.465 30.9456 145.713 30.7773C145.959 30.606 146.082 30.3344 146.082 29.9622C146.082 29.6109 145.964 29.3569 145.726 29.2004C145.491 29.0409 145.091 28.9612 144.525 28.9612H143.88V31.0298ZM149.188 31.9113H148.105V25.4352H149.188V31.9113ZM155.861 31.9113H152.128V25.4352H155.861V26.33H153.207V28.0929H155.694V28.9789H153.207V31.0121H155.861V31.9113ZM166.468 27.3931C166.468 28.0693 166.242 28.5876 165.791 28.9479C165.339 29.3082 164.697 29.4883 163.863 29.4883H163.177V31.9113H162.098V25.4352H163.998C164.823 25.4352 165.44 25.6005 165.849 25.9313C166.262 26.262 166.468 26.7493 166.468 27.3931ZM163.177 28.5979H163.75C164.304 28.5979 164.71 28.5034 164.969 28.3144C165.228 28.1254 165.357 27.8302 165.357 27.4285C165.357 27.0564 165.241 26.7788 165.01 26.5957C164.778 26.4126 164.417 26.3211 163.926 26.3211H163.177V28.5979ZM173.082 31.9113L172.423 30.1129H169.9L169.254 31.9113H168.117L170.586 25.4085H171.759L174.229 31.9113H173.082ZM172.138 29.2004L171.52 27.4373C171.475 27.3192 171.412 27.1332 171.33 26.8792C171.252 26.6253 171.198 26.4392 171.168 26.3211C171.087 26.6843 170.968 27.0815 170.811 27.5127L170.215 29.2004H172.138ZM180.767 29.9622C180.767 31.2616 179.918 31.9113 178.22 31.9113H176.302V25.4352H180.328V26.3433H177.381V28.0664H178.166C179.9 28.0664 180.767 28.6983 180.767 29.9622ZM177.381 31.0209H178.157C178.675 31.0209 179.054 30.9383 179.295 30.7729C179.536 30.6046 179.656 30.3344 179.656 29.9622C179.656 29.6049 179.534 29.348 179.29 29.1915C179.049 29.0321 178.628 28.9523 178.026 28.9523H177.381V31.0209ZM189.141 28.6643C189.141 29.7186 188.872 30.5381 188.333 31.1228C187.798 31.7076 187.038 31.9999 186.054 31.9999C185.058 31.9999 184.291 31.7105 183.756 31.1317C183.223 30.5499 182.957 29.7246 182.957 28.6555C182.957 27.5865 183.225 26.7655 183.761 26.1926C184.299 25.6197 185.067 25.3333 186.063 25.3333C187.044 25.3333 187.802 25.6242 188.338 26.2059C188.873 26.7877 189.141 27.6072 189.141 28.6643ZM184.103 28.6643C184.103 29.4617 184.267 30.0671 184.596 30.4805C184.924 30.891 185.41 31.0962 186.054 31.0962C186.695 31.0962 187.178 30.8925 187.503 30.485C187.831 30.0775 187.995 29.4706 187.995 28.6643C187.995 27.87 187.832 27.2676 187.508 26.8571C187.185 26.4466 186.704 26.2414 186.063 26.2414C185.416 26.2414 184.927 26.4466 184.596 26.8571C184.267 27.2676 184.103 27.87 184.103 28.6643ZM194.041 31.9113H192.962V26.3433H191.021V25.4352H195.982V26.3433H194.041V31.9113ZM202.578 29.9622C202.578 30.6031 202.366 31.0889 201.942 31.4196C201.52 31.7474 200.9 31.9113 200.082 31.9113H198.199V25.4352H199.278V28.0664H200.046C200.87 28.0664 201.497 28.2288 201.928 28.5536C202.361 28.8785 202.578 29.348 202.578 29.9622ZM199.278 31.0298H200.019C200.5 31.0298 200.864 30.9456 201.111 30.7773C201.357 30.606 201.481 30.3344 201.481 29.9622C201.481 29.6109 201.362 29.3569 201.124 29.2004C200.89 29.0409 200.49 28.9612 199.924 28.9612H199.278V31.0298ZM204.587 31.9113H203.504V25.4352H204.587V31.9113Z" fill="white" />
  <path fillRule="evenodd" clipRule="evenodd" d="M194.753 13.302L190.614 14.8533C191.36 16.3158 192.544 17.5054 193.997 18.2545C195.436 18.9737 197.276 19.3333 199.517 19.3333C202.221 19.3333 204.31 18.8252 205.784 17.8088C206.495 17.335 207.071 16.6842 207.459 15.9196C207.846 15.155 208.031 14.3024 207.996 13.4446C208.029 12.5767 207.819 11.7169 207.389 10.9638C206.96 10.2108 206.328 9.59513 205.567 9.18745C204.506 8.57228 202.605 8.01953 199.866 7.52915C198.858 7.40361 197.876 7.11934 196.956 6.68665C196.712 6.55787 196.509 6.36341 196.368 6.12495C196.227 5.88646 196.156 5.61331 196.16 5.33595C196.149 5.03766 196.218 4.74192 196.357 4.47883C196.497 4.21573 196.704 3.99467 196.956 3.83813C197.647 3.44825 198.435 3.26718 199.225 3.31658C200.12 3.28012 201.012 3.44615 201.834 3.80247C202.566 4.19447 203.178 4.78014 203.604 5.49643L207.474 3.89163C205.852 1.29721 203.092 0 199.194 0C196.835 0 194.976 0.512642 193.617 1.53793C192.959 2.01859 192.428 2.65523 192.073 3.39152C191.718 4.12782 191.547 4.9411 191.578 5.75943C191.549 6.5704 191.752 7.37267 192.161 8.0716C192.57 8.77054 193.169 9.33713 193.886 9.70459C194.471 10.0475 195.097 10.3128 195.748 10.4936C196.468 10.7046 197.697 10.9854 199.437 11.3361C200.997 11.6511 202.036 11.9706 202.555 12.2945C202.802 12.4393 203.005 12.6489 203.142 12.9011C203.279 13.1532 203.345 13.4382 203.334 13.7255C203.335 14.0753 203.24 14.4186 203.06 14.7175C202.88 15.0164 202.621 15.2593 202.312 15.4194C201.445 15.876 200.472 16.0899 199.495 16.0391C198.476 16.0805 197.463 15.8579 196.554 15.3926C195.746 14.9096 195.114 14.1763 194.753 13.302ZM84.1709 0.2628L89.6906 19.0612H94.6976L98.8725 6.36547L102.951 19.0612H107.9L113.447 0.2628H108.815L105.096 13.5915L100.898 0.2628H96.9179L92.7467 13.4846L89.2089 0.2628H84.1709ZM116.016 0.2628V19.0612L131.563 19.0523V15.6599H120.762V11.006H128.622V7.88557H120.762V3.65516H131.054V0.2628H116.016ZM134.969 19.0612V0.2628H139.768V15.6689H149.215V19.0612H134.969ZM151.687 0.2628V19.0612L159.498 19.0567C162.957 19.0597 165.631 18.2365 167.521 16.5871C169.412 14.9377 170.356 12.6063 170.356 9.59289C170.356 6.62996 169.422 4.33423 167.552 2.70566C165.683 1.07708 163.048 0.2628 159.648 0.2628H151.687ZM159.724 15.7224H156.486V3.60613H159.697C161.516 3.60613 162.911 4.12323 163.881 5.15743C164.851 6.19163 165.336 7.68943 165.336 9.65089C165.336 11.6301 164.856 13.1368 163.894 14.171C162.933 15.2052 161.543 15.7224 159.724 15.7224ZM173.222 19.0612V0.2628H188.26V3.65516H177.964V7.88557H185.823V11.006H177.964V15.6599H188.765V19.0523L173.222 19.0612Z" fill="white" />
  <path d="M44.7178 31.9953L38.4084 21.0368L32.0942 32.0001L29.8775 28.1466L21.0876 12.7565L21.0492 12.6987C20.5694 11.8269 20.6653 11.6005 21.6633 11.5234C20.958 9.95308 20.0751 8.58502 18.2375 8.26712C17.6217 8.19069 17.0006 8.1665 16.3807 8.19487C16.3028 8.19918 16.2272 8.2225 16.1602 8.26281C16.0934 8.30305 16.0373 8.35912 15.9968 8.42607C15.7665 9.03782 15.2916 9.07154 14.7494 9.02822C12.7102 8.87887 10.6711 8.75844 8.63191 8.58502C8.19045 8.5465 7.57632 8.58508 7.70106 7.80472L5.25409 7.93475L5.87783 9.05228L5.82985 9.09081L4.87024 8.06484L4.34726 9.23536L4.2561 9.20644L4.43843 7.95401L2.5576 8.23339L2.52881 8.15155L4.29448 7.53013L3.42125 6.74983L3.48841 6.639L4.51039 7.3134L4.40004 5.86831L4.4864 5.84422L4.82227 7.10146L5.58515 5.34326L5.69071 5.37698L5.21091 7.45309L7.68666 7.66983C7.6291 6.87506 8.13768 6.78355 8.69425 6.74983L15.3731 6.35962C16.6542 7.24595 18.1559 6.56675 19.509 6.93764C19.9925 7.05327 20.4472 7.26718 20.845 7.56632C21.2428 7.86539 21.5752 8.2433 21.8217 8.67659C22.2631 9.47136 22.7285 10.2517 23.1603 11.0513C23.3426 11.3885 23.5442 11.6101 23.9664 11.533C24.5853 11.427 24.926 11.7498 25.2379 12.2748C27.269 15.8811 29.3225 19.4713 31.3985 23.0455C31.9167 23.9463 32.2766 23.9366 32.7995 23.0455L38.0342 13.9511C38.1349 13.7729 38.2453 13.5995 38.4084 13.3297C38.8882 14.192 39.368 14.9819 39.8478 15.7768L44.0317 23.0551C44.5451 23.9511 44.9098 23.9511 45.4327 23.0551C47.4671 19.5227 49.4951 15.9822 51.5166 12.4338C51.8477 11.8509 52.2171 11.4704 52.956 11.5619C53.0816 11.5505 53.203 11.5113 53.3117 11.4472C53.4204 11.383 53.5135 11.2956 53.5846 11.191C54.0405 10.5152 54.4524 9.81043 54.8176 9.08121C55.5901 7.47235 56.9096 6.85094 58.6033 6.84134C59.1886 6.84134 59.774 6.88466 60.3546 6.84134C60.7142 6.76472 61.0649 6.65008 61.4005 6.49931C61.5249 6.44521 61.6585 6.4142 61.794 6.4078C64.0681 6.54269 66.3379 6.66312 68.612 6.83654C69.293 6.88952 69.2887 6.95211 69.4567 7.68909L71.6444 7.50127L71.1644 5.42515L71.2655 5.3818L72.033 7.15444L72.3499 5.90202H72.4553L72.3303 7.34712L73.3668 6.66792L73.4385 6.75463L72.5847 7.56386L74.2979 8.16115V8.25752L72.4357 7.97813L72.6086 9.24016L72.527 9.26908L72.0471 8.17081L71.0492 9.15825L70.9296 9.08121L71.5867 7.90589H69.6338C69.2452 8.16115 68.9957 8.46465 68.7175 8.48872C66.3857 8.69585 64.0442 8.85961 61.7076 9.00896C61.6119 8.99474 61.5206 8.95807 61.4415 8.90207C61.3625 8.84601 61.2975 8.77204 61.2518 8.68619C61.0359 8.20453 60.6856 8.20453 60.2346 8.16601C58.728 8.0937 57.327 8.32976 56.3146 9.55807C55.854 10.1858 55.431 10.8404 55.048 11.5186C56.1275 11.6101 56.2427 11.8269 55.7485 12.6891L45.0297 31.4751L44.7178 31.9953Z" fill="white" />
  <path d="M76.7202 0.00574843C75.0216 2.29379 73.0693 3.76777 70.0897 3.68588C65.3539 3.55583 60.6086 3.68588 55.8681 3.6329C55.218 3.58556 54.5685 3.73457 54.0033 4.06076C53.4382 4.38695 52.9831 4.87541 52.6966 5.46333C50.1825 9.90452 47.6156 14.3217 45.0726 18.7484C44.9815 18.9074 44.8807 19.0663 44.7175 19.3361L38.4081 8.40163L32.0988 19.3554C31.4558 18.2522 30.8609 17.2359 30.2755 16.2195C28.1708 12.5619 26.0676 8.90262 23.9661 5.24175C23.7102 4.7409 23.3153 4.32517 22.8292 4.04479C22.343 3.76441 21.7863 3.63139 21.2264 3.6618C16.2989 3.6618 11.3713 3.6618 6.44375 3.6618C4.3614 3.6618 2.60532 3.01633 1.28107 1.37857C0.935614 0.969135 0.503792 0.554878 0 0.00574843H0.892431C8.08945 0.00574843 15.2865 0.00574843 22.4835 0.00574843C23.3632 -0.0354939 24.2363 0.175418 25.001 0.613844C25.7656 1.05227 26.3902 1.7001 26.8017 2.48165C28.3435 5.11812 29.8821 7.75616 31.4174 10.3958C31.9356 11.287 32.3099 11.2918 32.8184 10.3958L38.1011 1.20517L38.4178 0.665665L41.9107 6.72539C42.6304 7.97776 43.3501 9.23499 44.065 10.4874C44.5064 11.2581 44.9287 11.2725 45.3605 10.5259C46.8863 7.90551 48.436 5.30437 49.9234 2.65987C50.3476 1.82358 51.0036 1.12816 51.8122 0.65729C52.6209 0.186421 53.5478 -0.0398329 54.4815 0.00574843C61.6259 0.0442838 68.7749 0.00574843 75.919 0.00574843H76.7202Z" fill="#FA983E" />
</svg>
